sim/bank_reg_tb.vcd
$date
  Wed May 16 00:08:02 2018
$end
$version
  GHDL v0
$end
$timescale
  1 fs
$end
$var reg 5 ! a_i[4:0] $end
$var reg 5 " b_i[4:0] $end
$var reg 5 # c_i[4:0] $end
$var reg 64 $ w_c_i[63:0] $end
$var reg 64 % r_a_o[63:0] $end
$var reg 64 & r_b_o[63:0] $end
$var reg 1 ' clk_i $end
$var reg 1 ( reg_w_i $end
$var reg 64 ) r_a_aux[63:0] $end
$var reg 64 * r_b_aux[63:0] $end
$scope module uut $end
$var reg 5 + a_i[4:0] $end
$var reg 5 , b_i[4:0] $end
$var reg 5 - c_i[4:0] $end
$var reg 1 . reg_w_i $end
$var reg 1 / clk_i $end
$var reg 64 0 w_c_i[63:0] $end
$var reg 64 1 r_a_o[63:0] $end
$var reg 64 2 r_b_o[63:0] $end
$comment memoria_ram is not handled $end
$upscope $end
$enddefinitions $end
#0
bUUUUU !
bUUUUU "
bUUUUU #
bUUUUUUUUUUUUUUUUUUUUUUUUUUUUUUUUUUUUUUUUUUUUUUUUUUUUUUUUUUUUUUUU $
bUUUUUUUUUUUUUUUUUUUUUUUUUUUUUUUUUUUUUUUUUUUUUUUUUUUUUUUUUUUUUUUU %
bUUUUUUUUUUUUUUUUUUUUUUUUUUUUUUUUUUUUUUUUUUUUUUUUUUUUUUUUUUUUUUUU &
0'
1(
bUUUUUUUUUUUUUUUUUUUUUUUUUUUUUUUUUUUUUUUUUUUUUUUUUUUUUUUUUUUUUUUU )
bUUUUUUUUUUUUUUUUUUUUUUUUUUUUUUUUUUUUUUUUUUUUUUUUUUUUUUUUUUUUUUUU *
bUUUUU +
bUUUUU ,
bUUUUU -
1.
0/
bUUUUUUUUUUUUUUUUUUUUUUUUUUUUUUUUUUUUUUUUUUUUUUUUUUUUUUUUUUUUUUUU 0
bUUUUUUUUUUUUUUUUUUUUUUUUUUUUUUUUUUUUUUUUUUUUUUUUUUUUUUUUUUUUUUUU 1
bUUUUUUUUUUUUUUUUUUUUUUUUUUUUUUUUUUUUUUUUUUUUUUUUUUUUUUUUUUUUUUUU 2
#5000000
1'
1/
#10000000
0'
0/
#15000000
1'
1/
#20000000
b00000 #
b0000000000000000000000000000000000000000000000000000000000000000 $
0'
b00000 -
0/
b0000000000000000000000000000000000000000000000000000000000000000 0
#25000000
1'
1/
#30000000
0'
0/
#35000000
b00001 #
b0000000000000000000000000000000000000000000000000000000000000001 $
b0000000000000000000000000000000000000000000000000000000000000000 %
b0000000000000000000000000000000000000000000000000000000000000000 &
1'
b00001 -
1/
b0000000000000000000000000000000000000000000000000000000000000001 0
b0000000000000000000000000000000000000000000000000000000000000000 1
b0000000000000000000000000000000000000000000000000000000000000000 2
#40000000
0'
0/
#45000000
1'
1/
#50000000
b00010 #
b0000000000000000000000000000000000000000000000000000000000000010 $
0'
b00010 -
0/
b0000000000000000000000000000000000000000000000000000000000000010 0
#55000000
1'
1/
#60000000
0'
0/
#65000000
b00011 #
b0000000000000000000000000000000000000000000000000000000000000011 $
1'
b00011 -
1/
b0000000000000000000000000000000000000000000000000000000000000011 0
#70000000
0'
0/
#75000000
1'
1/
#80000000
b00100 #
b0000000000000000000000000000000000000000000000000000000000000100 $
0'
b00100 -
0/
b0000000000000000000000000000000000000000000000000000000000000100 0
#85000000
1'
1/
#90000000
0'
0/
#95000000
b00101 #
b0000000000000000000000000000000000000000000000000000000000000101 $
1'
b00101 -
1/
b0000000000000000000000000000000000000000000000000000000000000101 0
#100000000
0'
0/
#105000000
1'
1/
#110000000
b00110 #
b0000000000000000000000000000000000000000000000000000000000000110 $
0'
b00110 -
0/
b0000000000000000000000000000000000000000000000000000000000000110 0
#115000000
1'
1/
#120000000
0'
0/
#125000000
b00111 #
b0000000000000000000000000000000000000000000000000000000000000111 $
1'
b00111 -
1/
b0000000000000000000000000000000000000000000000000000000000000111 0
#130000000
0'
0/
#135000000
1'
1/
#140000000
b01000 #
b0000000000000000000000000000000000000000000000000000000000001000 $
0'
b01000 -
0/
b0000000000000000000000000000000000000000000000000000000000001000 0
#145000000
1'
1/
#150000000
0'
0/
#155000000
b01001 #
b0000000000000000000000000000000000000000000000000000000000001001 $
1'
b01001 -
1/
b0000000000000000000000000000000000000000000000000000000000001001 0
#160000000
0'
0/
#165000000
1'
1/
#170000000
b01010 #
b0000000000000000000000000000000000000000000000000000000000001010 $
0'
b01010 -
0/
b0000000000000000000000000000000000000000000000000000000000001010 0
#175000000
1'
1/
#180000000
0'
0/
#185000000
b01011 #
b0000000000000000000000000000000000000000000000000000000000001011 $
1'
b01011 -
1/
b0000000000000000000000000000000000000000000000000000000000001011 0
#190000000
0'
0/
#195000000
1'
1/
#200000000
b01100 #
b0000000000000000000000000000000000000000000000000000000000001100 $
0'
b01100 -
0/
b0000000000000000000000000000000000000000000000000000000000001100 0
#205000000
1'
1/
#210000000
0'
0/
#215000000
b01101 #
b0000000000000000000000000000000000000000000000000000000000001101 $
1'
b01101 -
1/
b0000000000000000000000000000000000000000000000000000000000001101 0
#220000000
0'
0/
#225000000
1'
1/
#230000000
b01110 #
b0000000000000000000000000000000000000000000000000000000000001110 $
0'
b01110 -
0/
b0000000000000000000000000000000000000000000000000000000000001110 0
#235000000
1'
1/
#240000000
0'
0/
#245000000
b01111 #
b0000000000000000000000000000000000000000000000000000000000001111 $
1'
b01111 -
1/
b0000000000000000000000000000000000000000000000000000000000001111 0
#250000000
0'
0/
#255000000
1'
1/
#260000000
b10000 #
b0000000000000000000000000000000000000000000000000000000000010000 $
0'
b10000 -
0/
b0000000000000000000000000000000000000000000000000000000000010000 0
#265000000
1'
1/
#270000000
0'
0/
#275000000
b10001 #
b0000000000000000000000000000000000000000000000000000000000010001 $
1'
b10001 -
1/
b0000000000000000000000000000000000000000000000000000000000010001 0
#280000000
0'
0/
#285000000
1'
1/
#290000000
b10010 #
b0000000000000000000000000000000000000000000000000000000000010010 $
0'
b10010 -
0/
b0000000000000000000000000000000000000000000000000000000000010010 0
#295000000
1'
1/
#300000000
0'
0/
#305000000
b10011 #
b0000000000000000000000000000000000000000000000000000000000010011 $
1'
b10011 -
1/
b0000000000000000000000000000000000000000000000000000000000010011 0
#310000000
0'
0/
#315000000
1'
1/
#320000000
b10100 #
b0000000000000000000000000000000000000000000000000000000000010100 $
0'
b10100 -
0/
b0000000000000000000000000000000000000000000000000000000000010100 0
#325000000
1'
1/
#330000000
0'
0/
#335000000
b10101 #
b0000000000000000000000000000000000000000000000000000000000010101 $
1'
b10101 -
1/
b0000000000000000000000000000000000000000000000000000000000010101 0
#340000000
0'
0/
#345000000
1'
1/
#350000000
b10110 #
b0000000000000000000000000000000000000000000000000000000000010110 $
0'
b10110 -
0/
b0000000000000000000000000000000000000000000000000000000000010110 0
#355000000
1'
1/
#360000000
0'
0/
#365000000
b10111 #
b0000000000000000000000000000000000000000000000000000000000010111 $
1'
b10111 -
1/
b0000000000000000000000000000000000000000000000000000000000010111 0
#370000000
0'
0/
#375000000
1'
1/
#380000000
b11000 #
b0000000000000000000000000000000000000000000000000000000000011000 $
0'
b11000 -
0/
b0000000000000000000000000000000000000000000000000000000000011000 0
#385000000
1'
1/
#390000000
0'
0/
#395000000
b11001 #
b0000000000000000000000000000000000000000000000000000000000011001 $
1'
b11001 -
1/
b0000000000000000000000000000000000000000000000000000000000011001 0
#400000000
0'
0/
#405000000
1'
1/
#410000000
b11010 #
b0000000000000000000000000000000000000000000000000000000000011010 $
0'
b11010 -
0/
b0000000000000000000000000000000000000000000000000000000000011010 0
#415000000
1'
1/
#420000000
0'
0/
#425000000
b11011 #
b0000000000000000000000000000000000000000000000000000000000011011 $
1'
b11011 -
1/
b0000000000000000000000000000000000000000000000000000000000011011 0
#430000000
0'
0/
#435000000
1'
1/
#440000000
b11100 #
b0000000000000000000000000000000000000000000000000000000000011100 $
0'
b11100 -
0/
b0000000000000000000000000000000000000000000000000000000000011100 0
#445000000
1'
1/
#450000000
0'
0/
#455000000
b11101 #
b0000000000000000000000000000000000000000000000000000000000011101 $
1'
b11101 -
1/
b0000000000000000000000000000000000000000000000000000000000011101 0
#460000000
0'
0/
#465000000
1'
1/
#470000000
b11110 #
b0000000000000000000000000000000000000000000000000000000000011110 $
0'
b11110 -
0/
b0000000000000000000000000000000000000000000000000000000000011110 0
#475000000
1'
1/
#480000000
0'
0/
#485000000
b11111 #
b0000000000000000000000000000000000000000000000000000000000011111 $
1'
b11111 -
1/
b0000000000000000000000000000000000000000000000000000000000011111 0
#490000000
0'
0/
#495000000
1'
1/
#500000000
b00000 !
b00000 "
0'
0(
b0000000000000000000000000000000000000000000000000000000000000000 )
b0000000000000000000000000000000000000000000000000000000000000000 *
b00000 +
b00000 ,
0.
0/
#505000000
1'
1/
#510000000
0'
0/
#515000000
1'
1/
#520000000
0'
0/
#525000000
b00001 !
b00001 "
b0000000000000000000000000000000000000000000000000000000000000001 %
b0000000000000000000000000000000000000000000000000000000000000001 &
1'
b0000000000000000000000000000000000000000000000000000000000000001 )
b0000000000000000000000000000000000000000000000000000000000000001 *
b00001 +
b00001 ,
1/
b0000000000000000000000000000000000000000000000000000000000000001 1
b0000000000000000000000000000000000000000000000000000000000000001 2
#530000000
0'
0/
#535000000
1'
1/
#540000000
0'
0/
#545000000
1'
1/
#550000000
b00010 !
b00010 "
0'
b0000000000000000000000000000000000000000000000000000000000000010 )
b0000000000000000000000000000000000000000000000000000000000000010 *
b00010 +
b00010 ,
0/
#555000000
b0000000000000000000000000000000000000000000000000000000000000010 %
b0000000000000000000000000000000000000000000000000000000000000010 &
1'
1/
b0000000000000000000000000000000000000000000000000000000000000010 1
b0000000000000000000000000000000000000000000000000000000000000010 2
#560000000
0'
0/
#565000000
1'
1/
#570000000
0'
0/
#575000000
b00011 !
b00011 "
b0000000000000000000000000000000000000000000000000000000000000011 %
b0000000000000000000000000000000000000000000000000000000000000011 &
1'
b0000000000000000000000000000000000000000000000000000000000000011 )
b0000000000000000000000000000000000000000000000000000000000000011 *
b00011 +
b00011 ,
1/
b0000000000000000000000000000000000000000000000000000000000000011 1
b0000000000000000000000000000000000000000000000000000000000000011 2
#580000000
0'
0/
#585000000
1'
1/
#590000000
0'
0/
#595000000
1'
1/
#600000000
b00100 !
b00100 "
0'
b0000000000000000000000000000000000000000000000000000000000000100 )
b0000000000000000000000000000000000000000000000000000000000000100 *
b00100 +
b00100 ,
0/
#605000000
b0000000000000000000000000000000000000000000000000000000000000100 %
b0000000000000000000000000000000000000000000000000000000000000100 &
1'
1/
b0000000000000000000000000000000000000000000000000000000000000100 1
b0000000000000000000000000000000000000000000000000000000000000100 2
#610000000
0'
0/
#615000000
1'
1/
#620000000
0'
0/
#625000000
b00101 !
b00101 "
b0000000000000000000000000000000000000000000000000000000000000101 %
b0000000000000000000000000000000000000000000000000000000000000101 &
1'
b0000000000000000000000000000000000000000000000000000000000000101 )
b0000000000000000000000000000000000000000000000000000000000000101 *
b00101 +
b00101 ,
1/
b0000000000000000000000000000000000000000000000000000000000000101 1
b0000000000000000000000000000000000000000000000000000000000000101 2
#630000000
0'
0/
#635000000
1'
1/
#640000000
0'
0/
#645000000
1'
1/
#650000000
b00110 !
b00110 "
0'
b0000000000000000000000000000000000000000000000000000000000000110 )
b0000000000000000000000000000000000000000000000000000000000000110 *
b00110 +
b00110 ,
0/
#655000000
b0000000000000000000000000000000000000000000000000000000000000110 %
b0000000000000000000000000000000000000000000000000000000000000110 &
1'
1/
b0000000000000000000000000000000000000000000000000000000000000110 1
b0000000000000000000000000000000000000000000000000000000000000110 2
#660000000
0'
0/
#665000000
1'
1/
#670000000
0'
0/
#675000000
b00111 !
b00111 "
b0000000000000000000000000000000000000000000000000000000000000111 %
b0000000000000000000000000000000000000000000000000000000000000111 &
1'
b0000000000000000000000000000000000000000000000000000000000000111 )
b0000000000000000000000000000000000000000000000000000000000000111 *
b00111 +
b00111 ,
1/
b0000000000000000000000000000000000000000000000000000000000000111 1
b0000000000000000000000000000000000000000000000000000000000000111 2
#680000000
0'
0/
#685000000
1'
1/
#690000000
0'
0/
#695000000
1'
1/
#700000000
b01000 !
b01000 "
0'
b0000000000000000000000000000000000000000000000000000000000001000 )
b0000000000000000000000000000000000000000000000000000000000001000 *
b01000 +
b01000 ,
0/
#705000000
b0000000000000000000000000000000000000000000000000000000000001000 %
b0000000000000000000000000000000000000000000000000000000000001000 &
1'
1/
b0000000000000000000000000000000000000000000000000000000000001000 1
b0000000000000000000000000000000000000000000000000000000000001000 2
#710000000
0'
0/
#715000000
1'
1/
#720000000
0'
0/
#725000000
b01001 !
b01001 "
b0000000000000000000000000000000000000000000000000000000000001001 %
b0000000000000000000000000000000000000000000000000000000000001001 &
1'
b0000000000000000000000000000000000000000000000000000000000001001 )
b0000000000000000000000000000000000000000000000000000000000001001 *
b01001 +
b01001 ,
1/
b0000000000000000000000000000000000000000000000000000000000001001 1
b0000000000000000000000000000000000000000000000000000000000001001 2
#730000000
0'
0/
#735000000
1'
1/
#740000000
0'
0/
#745000000
1'
1/
#750000000
b01010 !
b01010 "
0'
b0000000000000000000000000000000000000000000000000000000000001010 )
b0000000000000000000000000000000000000000000000000000000000001010 *
b01010 +
b01010 ,
0/
#755000000
b0000000000000000000000000000000000000000000000000000000000001010 %
b0000000000000000000000000000000000000000000000000000000000001010 &
1'
1/
b0000000000000000000000000000000000000000000000000000000000001010 1
b0000000000000000000000000000000000000000000000000000000000001010 2
#760000000
0'
0/
#765000000
1'
1/
#770000000
0'
0/
#775000000
b01011 !
b01011 "
b0000000000000000000000000000000000000000000000000000000000001011 %
b0000000000000000000000000000000000000000000000000000000000001011 &
1'
b0000000000000000000000000000000000000000000000000000000000001011 )
b0000000000000000000000000000000000000000000000000000000000001011 *
b01011 +
b01011 ,
1/
b0000000000000000000000000000000000000000000000000000000000001011 1
b0000000000000000000000000000000000000000000000000000000000001011 2
#780000000
0'
0/
#785000000
1'
1/
#790000000
0'
0/
#795000000
1'
1/
#800000000
b01100 !
b01100 "
0'
b0000000000000000000000000000000000000000000000000000000000001100 )
b0000000000000000000000000000000000000000000000000000000000001100 *
b01100 +
b01100 ,
0/
#805000000
b0000000000000000000000000000000000000000000000000000000000001100 %
b0000000000000000000000000000000000000000000000000000000000001100 &
1'
1/
b0000000000000000000000000000000000000000000000000000000000001100 1
b0000000000000000000000000000000000000000000000000000000000001100 2
#810000000
0'
0/
#815000000
1'
1/
#820000000
0'
0/
#825000000
b01101 !
b01101 "
b0000000000000000000000000000000000000000000000000000000000001101 %
b0000000000000000000000000000000000000000000000000000000000001101 &
1'
b0000000000000000000000000000000000000000000000000000000000001101 )
b0000000000000000000000000000000000000000000000000000000000001101 *
b01101 +
b01101 ,
1/
b0000000000000000000000000000000000000000000000000000000000001101 1
b0000000000000000000000000000000000000000000000000000000000001101 2
#830000000
0'
0/
#835000000
1'
1/
#840000000
0'
0/
#845000000
1'
1/
#850000000
b01110 !
b01110 "
0'
b0000000000000000000000000000000000000000000000000000000000001110 )
b0000000000000000000000000000000000000000000000000000000000001110 *
b01110 +
b01110 ,
0/
#855000000
b0000000000000000000000000000000000000000000000000000000000001110 %
b0000000000000000000000000000000000000000000000000000000000001110 &
1'
1/
b0000000000000000000000000000000000000000000000000000000000001110 1
b0000000000000000000000000000000000000000000000000000000000001110 2
#860000000
0'
0/
#865000000
1'
1/
#870000000
0'
0/
#875000000
b01111 !
b01111 "
b0000000000000000000000000000000000000000000000000000000000001111 %
b0000000000000000000000000000000000000000000000000000000000001111 &
1'
b0000000000000000000000000000000000000000000000000000000000001111 )
b0000000000000000000000000000000000000000000000000000000000001111 *
b01111 +
b01111 ,
1/
b0000000000000000000000000000000000000000000000000000000000001111 1
b0000000000000000000000000000000000000000000000000000000000001111 2
#880000000
0'
0/
#885000000
1'
1/
#890000000
0'
0/
#895000000
1'
1/
#900000000
b10000 !
b10000 "
0'
b0000000000000000000000000000000000000000000000000000000000010000 )
b0000000000000000000000000000000000000000000000000000000000010000 *
b10000 +
b10000 ,
0/
#905000000
b0000000000000000000000000000000000000000000000000000000000010000 %
b0000000000000000000000000000000000000000000000000000000000010000 &
1'
1/
b0000000000000000000000000000000000000000000000000000000000010000 1
b0000000000000000000000000000000000000000000000000000000000010000 2
#910000000
0'
0/
#915000000
1'
1/
#920000000
0'
0/
#925000000
b10001 !
b10001 "
b0000000000000000000000000000000000000000000000000000000000010001 %
b0000000000000000000000000000000000000000000000000000000000010001 &
1'
b0000000000000000000000000000000000000000000000000000000000010001 )
b0000000000000000000000000000000000000000000000000000000000010001 *
b10001 +
b10001 ,
1/
b0000000000000000000000000000000000000000000000000000000000010001 1
b0000000000000000000000000000000000000000000000000000000000010001 2
#930000000
0'
0/
#935000000
1'
1/
#940000000
0'
0/
#945000000
1'
1/
#950000000
b10010 !
b10010 "
0'
b0000000000000000000000000000000000000000000000000000000000010010 )
b0000000000000000000000000000000000000000000000000000000000010010 *
b10010 +
b10010 ,
0/
#955000000
b0000000000000000000000000000000000000000000000000000000000010010 %
b0000000000000000000000000000000000000000000000000000000000010010 &
1'
1/
b0000000000000000000000000000000000000000000000000000000000010010 1
b0000000000000000000000000000000000000000000000000000000000010010 2
#960000000
0'
0/
#965000000
1'
1/
#970000000
0'
0/
#975000000
b10011 !
b10011 "
b0000000000000000000000000000000000000000000000000000000000010011 %
b0000000000000000000000000000000000000000000000000000000000010011 &
1'
b0000000000000000000000000000000000000000000000000000000000010011 )
b0000000000000000000000000000000000000000000000000000000000010011 *
b10011 +
b10011 ,
1/
b0000000000000000000000000000000000000000000000000000000000010011 1
b0000000000000000000000000000000000000000000000000000000000010011 2
#980000000
0'
0/
#985000000
1'
1/
#990000000
0'
0/
#995000000
1'
1/
#1000000000
b10100 !
b10100 "
0'
b0000000000000000000000000000000000000000000000000000000000010100 )
b0000000000000000000000000000000000000000000000000000000000010100 *
b10100 +
b10100 ,
0/
#1005000000
b0000000000000000000000000000000000000000000000000000000000010100 %
b0000000000000000000000000000000000000000000000000000000000010100 &
1'
1/
b0000000000000000000000000000000000000000000000000000000000010100 1
b0000000000000000000000000000000000000000000000000000000000010100 2
#1010000000
0'
0/
#1015000000
1'
1/
#1020000000
0'
0/
#1025000000
b10101 !
b10101 "
b0000000000000000000000000000000000000000000000000000000000010101 %
b0000000000000000000000000000000000000000000000000000000000010101 &
1'
b0000000000000000000000000000000000000000000000000000000000010101 )
b0000000000000000000000000000000000000000000000000000000000010101 *
b10101 +
b10101 ,
1/
b0000000000000000000000000000000000000000000000000000000000010101 1
b0000000000000000000000000000000000000000000000000000000000010101 2
#1030000000
0'
0/
#1035000000
1'
1/
#1040000000
0'
0/
#1045000000
1'
1/
#1050000000
b10110 !
b10110 "
0'
b0000000000000000000000000000000000000000000000000000000000010110 )
b0000000000000000000000000000000000000000000000000000000000010110 *
b10110 +
b10110 ,
0/
#1055000000
b0000000000000000000000000000000000000000000000000000000000010110 %
b0000000000000000000000000000000000000000000000000000000000010110 &
1'
1/
b0000000000000000000000000000000000000000000000000000000000010110 1
b0000000000000000000000000000000000000000000000000000000000010110 2
#1060000000
0'
0/
#1065000000
1'
1/
#1070000000
0'
0/
#1075000000
b10111 !
b10111 "
b0000000000000000000000000000000000000000000000000000000000010111 %
b0000000000000000000000000000000000000000000000000000000000010111 &
1'
b0000000000000000000000000000000000000000000000000000000000010111 )
b0000000000000000000000000000000000000000000000000000000000010111 *
b10111 +
b10111 ,
1/
b0000000000000000000000000000000000000000000000000000000000010111 1
b0000000000000000000000000000000000000000000000000000000000010111 2
#1080000000
0'
0/
#1085000000
1'
1/
#1090000000
0'
0/
#1095000000
1'
1/
#1100000000
b11000 !
b11000 "
0'
b0000000000000000000000000000000000000000000000000000000000011000 )
b0000000000000000000000000000000000000000000000000000000000011000 *
b11000 +
b11000 ,
0/
#1105000000
b0000000000000000000000000000000000000000000000000000000000011000 %
b0000000000000000000000000000000000000000000000000000000000011000 &
1'
1/
b0000000000000000000000000000000000000000000000000000000000011000 1
b0000000000000000000000000000000000000000000000000000000000011000 2
#1110000000
0'
0/
#1115000000
1'
1/
#1120000000
0'
0/
#1125000000
b11001 !
b11001 "
b0000000000000000000000000000000000000000000000000000000000011001 %
b0000000000000000000000000000000000000000000000000000000000011001 &
1'
b0000000000000000000000000000000000000000000000000000000000011001 )
b0000000000000000000000000000000000000000000000000000000000011001 *
b11001 +
b11001 ,
1/
b0000000000000000000000000000000000000000000000000000000000011001 1
b0000000000000000000000000000000000000000000000000000000000011001 2
#1130000000
0'
0/
#1135000000
1'
1/
#1140000000
0'
0/
#1145000000
1'
1/
#1150000000
b11010 !
b11010 "
0'
b0000000000000000000000000000000000000000000000000000000000011010 )
b0000000000000000000000000000000000000000000000000000000000011010 *
b11010 +
b11010 ,
0/
#1155000000
b0000000000000000000000000000000000000000000000000000000000011010 %
b0000000000000000000000000000000000000000000000000000000000011010 &
1'
1/
b0000000000000000000000000000000000000000000000000000000000011010 1
b0000000000000000000000000000000000000000000000000000000000011010 2
#1160000000
0'
0/
#1165000000
1'
1/
#1170000000
0'
0/
#1175000000
b11011 !
b11011 "
b0000000000000000000000000000000000000000000000000000000000011011 %
b0000000000000000000000000000000000000000000000000000000000011011 &
1'
b0000000000000000000000000000000000000000000000000000000000011011 )
b0000000000000000000000000000000000000000000000000000000000011011 *
b11011 +
b11011 ,
1/
b0000000000000000000000000000000000000000000000000000000000011011 1
b0000000000000000000000000000000000000000000000000000000000011011 2
#1180000000
0'
0/
#1185000000
1'
1/
#1190000000
0'
0/
#1195000000
1'
1/
#1200000000
b11100 !
b11100 "
0'
b0000000000000000000000000000000000000000000000000000000000011100 )
b0000000000000000000000000000000000000000000000000000000000011100 *
b11100 +
b11100 ,
0/
#1205000000
b0000000000000000000000000000000000000000000000000000000000011100 %
b0000000000000000000000000000000000000000000000000000000000011100 &
1'
1/
b0000000000000000000000000000000000000000000000000000000000011100 1
b0000000000000000000000000000000000000000000000000000000000011100 2
#1210000000
0'
0/
#1215000000
1'
1/
#1220000000
0'
0/
#1225000000
b11101 !
b11101 "
b0000000000000000000000000000000000000000000000000000000000011101 %
b0000000000000000000000000000000000000000000000000000000000011101 &
1'
b0000000000000000000000000000000000000000000000000000000000011101 )
b0000000000000000000000000000000000000000000000000000000000011101 *
b11101 +
b11101 ,
1/
b0000000000000000000000000000000000000000000000000000000000011101 1
b0000000000000000000000000000000000000000000000000000000000011101 2
#1230000000
0'
0/
#1235000000
1'
1/
#1240000000
0'
0/
#1245000000
1'
1/
#1250000000
b11110 !
b11110 "
0'
b0000000000000000000000000000000000000000000000000000000000011110 )
b0000000000000000000000000000000000000000000000000000000000011110 *
b11110 +
b11110 ,
0/
#1255000000
b0000000000000000000000000000000000000000000000000000000000011110 %
b0000000000000000000000000000000000000000000000000000000000011110 &
1'
1/
b0000000000000000000000000000000000000000000000000000000000011110 1
b0000000000000000000000000000000000000000000000000000000000011110 2
#1260000000
0'
0/
#1265000000
1'
1/
#1270000000
0'
0/
#1275000000
b11111 !
b11111 "
b0000000000000000000000000000000000000000000000000000000000011111 %
b0000000000000000000000000000000000000000000000000000000000011111 &
1'
b0000000000000000000000000000000000000000000000000000000000011111 )
b0000000000000000000000000000000000000000000000000000000000011111 *
b11111 +
b11111 ,
1/
b0000000000000000000000000000000000000000000000000000000000011111 1
b0000000000000000000000000000000000000000000000000000000000011111 2
